Suite/Test/Step Name,Browser,Description,Tag,Start time,End time,Duration,Status
Sample Suite,Chrome 96.0.4664.93,,,2021-12-08 14:34:46,2021-12-08 14:34:57,10.671s,PASSED
,,,,,,,
Test Cases/sample helllo,Chrome 96.0.4664.93,,,2021-12-08 14:34:46,2021-12-08 14:34:57,10.417s,PASSED
"openBrowser("""")",Chrome 96.0.4664.93,,,2021-12-08 14:34:47,2021-12-08 14:34:52,5.147s,PASSED
"navigateToUrl(""https://katalon-demo-cura.herokuapp.com/"")",Chrome 96.0.4664.93,,,2021-12-08 14:34:52,2021-12-08 14:34:56,3.924s,PASSED
"click(findTestObject(""Object Repository/Page_CURA Healthcare Service/h1_CURA Healthcare Service""))",Chrome 96.0.4664.93,,,2021-12-08 14:34:56,2021-12-08 14:34:56,0.503s,PASSED
"verifyElementText(findTestObject(""Object Repository/Page_CURA Healthcare Service/h3_We Care About Your Health""), ""We Care About Your Health"")",Chrome 96.0.4664.93,,,2021-12-08 14:34:56,2021-12-08 14:34:57,0.453s,PASSED
